{
  "main.css": "/static/css/main.c6c83e60.chunk.css",
  "main.js": "/static/js/main.3eef31e3.chunk.js",
  "main.js.map": "/static/js/main.3eef31e3.chunk.js.map",
  "static/css/1.41e41ba9.chunk.css": "/static/css/1.41e41ba9.chunk.css",
  "static/js/1.4ad59aae.chunk.js": "/static/js/1.4ad59aae.chunk.js",
  "static/js/1.4ad59aae.chunk.js.map": "/static/js/1.4ad59aae.chunk.js.map",
  "runtime~main.js": "/static/js/runtime~main.229c360f.js",
  "runtime~main.js.map": "/static/js/runtime~main.229c360f.js.map",
  "static/css/1.41e41ba9.chunk.css.map": "/static/css/1.41e41ba9.chunk.css.map",
  "static/css/main.c6c83e60.chunk.css.map": "/static/css/main.c6c83e60.chunk.css.map",
  "index.html": "/index.html",
  "precache-manifest.5910cd12ea4980bdee4e30c065e08891.js": "/precache-manifest.5910cd12ea4980bdee4e30c065e08891.js",
  "service-worker.js": "/service-worker.js"
}